{
  "forge_marker": 1,
  "defaults":
  {
	"model": "cube_all",
    "textures": 
	{ 
		"all": "blocks/obsidian"
	},
	"transform": "forge:default-block"
  },
  "variants": 
  {
    "normal": [{ }],
    "inventory": 
    [{
    	"transform": "forge:default-block"
  	}]
  }
}